ANLY503_HW7_Xin_Lu
…
migrations_nx <- migrations %>%
  rownames_to_column() %>% # convert rowname into a column
  rename(source=rowname) %>%
  pivot_longer(names_to = "target", values_to = "count", c(Alabama:Wyoming)) %>%
  filter(source %in% c("New York", "Texas", "Washington", "Virginia")) %>%
  group_by(source) %>% 
  arrange(desc(count)) %>%
  slice(1:10) # last 3 rows to choose the top 10 targets that each of the 4 states moved to

# states is the node list, which should be source & target put together and remove duplicates
states <- unique(c(as.character(migrations_nx$source), as.character(migrations_nx$target)))
migrations_nx %>% head(40)

## # A tibble: 40 x 3
## # Groups:   source [4]
##    source   target         count
##    <chr>    <chr>          <dbl>
##  1 New York New Jersey     64810
##  2 New York Florida        63033
##  3 New York Pennsylvania   43048
##  4 New York California     34848
##  5 New York Connecticut    27361
##  6 New York North Carolina 25596
##  7 New York Massachusetts  19960
##  8 New York Texas          18925
##  9 New York Virginia       17983
## 10 New York South Carolina 12721
## #  with 30 more rows
…
