ANLY 503 Final Project
…
Similar to the constructors championship, only the selected few have ever won a driver’s championship during their years in Formula 1. The driver’s championship started earlier than the constructors’ championship in 1950. Out of all the drivers, Lewis Hamilton and Michael Schumacher are the most successful ones, each winning 7 titles. Lewis Hamilton just won his 7th title this year and in his peak (which is scary to think about considering he’s been in this sport for more than 13 years and already won 7 titles) so it’s very likely that he will beat Michael’s record next year. Due to Hamilton’s dominance over the years, only 2 drivers’ that have won the driver’s championship other than Hamilton are still active on the field, which is very rare considering in the 1950’s there were usually more than 5 driver’s champions in the field.

Network graph: drivers & teams

## # A tibble: 33 x 3
##    Name               Total_Drivers_Championship Total_Points
##    <fct>                                   <int>        <dbl>
##  1 Alain Prost                                 4         768.
##  2 Alan Jones                                  1         199 
##  3 Alberto Ascari                              2         108.
##  4 Ayrton Senna                                3         610 
##  5 Damon Hill                                  1         360 
##  6 Denny Hulme                                 1         248 
##  7 Emerson Fittipaldi                          2         281 
##  8 Fernando Alonso                             2        1899 
##  9 Graham Hill                                 2         270 
## 10 Jack Brabham                                3         253 
## # … with 23 more rows
…
